{
	"info": {
		"_postman_id": "92d364a7-4d5b-4d51-ab9f-1f1fa1cb58de",
		"name": "app-librarian",
		"schema": "https://schema.getpostman.com/json/collection/v2.1.0/collection.json",
		"_exporter_id": "15145064",
		"_collection_link": "https://www.postman.com/realis/workspace/app-librarian/collection/15145064-92d364a7-4d5b-4d51-ab9f-1f1fa1cb58de?action=share&source=collection_link&creator=15145064"
	},
	"item": [
		{
			"name": "app-publisher",
			"item": [
				{
					"name": "get publishers",
					"request": {
						"method": "GET",
						"header": [
							{
								"key": "Accept",
								"value": "application/json",
								"type": "text",
								"disabled": true
							}
						],
						"url": {
							"raw": "http://localhost:8001/publishers",
							"protocol": "http",
							"host": [
								"localhost"
							],
							"port": "8001",
							"path": [
								"publishers"
							]
						}
					},
					"response": []
				},
				{
					"name": "get publisher",
					"request": {
						"method": "GET",
						"header": [
							{
								"key": "Accept",
								"value": "application/json",
								"type": "text"
							}
						],
						"url": {
							"raw": "http://localhost:8001/publishers/3",
							"protocol": "http",
							"host": [
								"localhost"
							],
							"port": "8001",
							"path": [
								"publishers",
								"3"
							]
						}
					},
					"response": []
				},
				{
					"name": "is publisher",
					"request": {
						"method": "HEAD",
						"header": [
							{
								"key": "Accept",
								"value": "application/json",
								"type": "text"
							}
						],
						"url": {
							"raw": "http://localhost:8001/publishers/4",
							"protocol": "http",
							"host": [
								"localhost"
							],
							"port": "8001",
							"path": [
								"publishers",
								"4"
							]
						}
					},
					"response": []
				}
			]
		},
		{
			"name": "app-book",
			"item": [
				{
					"name": "get books",
					"request": {
						"method": "GET",
						"header": [
							{
								"key": "Accept",
								"value": "application/json",
								"type": "text"
							}
						],
						"url": {
							"raw": "http://localhost:8002/books",
							"protocol": "http",
							"host": [
								"localhost"
							],
							"port": "8002",
							"path": [
								"books"
							]
						}
					},
					"response": []
				},
				{
					"name": "get book",
					"request": {
						"method": "GET",
						"header": [
							{
								"key": "Accept",
								"value": "application/json",
								"type": "text"
							}
						],
						"url": {
							"raw": "http://localhost:8002/books/6",
							"protocol": "http",
							"host": [
								"localhost"
							],
							"port": "8002",
							"path": [
								"books",
								"6"
							]
						}
					},
					"response": []
				},
				{
					"name": "add book",
					"request": {
						"auth": {
							"type": "bearer",
							"bearer": [
								{
									"key": "token",
									"value": "eyJraWQiOiI4ZWVhNmU2MC0yOGI0LTQ4MzYtYjQ4NC00YjU1YmYzZTc5MTAiLCJhbGciOiJSUzI1NiJ9.eyJzdWIiOiJ1c2VyMSIsImF1ZCI6ImNsaWVudCIsIm5iZiI6MTcwNDU2OTEzMiwic2NvcGUiOlsib3BlbmlkIl0sImlzcyI6Imh0dHA6Ly9sb2NhbGhvc3Q6OTAwMCIsImV4cCI6MTcwNDU2OTQzMiwiaWF0IjoxNzA0NTY5MTMyLCJhdXRob3JpdGllcyI6WyJST0xFX1VTRVIiXX0.hLRivZ-ESjXa7l7T7AeAuZbiy-OAY7V5OCe0cRhTr24yq7EYm28751zjNLta8NRa8QXR81xq9m38qYmMIenffwBJtEnjSPl2ugo_aJC4WCw-yJ_c5FGhn4Lza2aIhV7XgX7CdmkB361cvRHc0mDlcJ42DlOd7_ORV43bWdlnIly_YvzaIeKXgYASFqfspC5eYOFd7uuO-VwbdtGsBmsx_mMyg2ufrgMejs1DOqgL_InUtRK-C_DHW6-qoT_VkFgqYSQux_YOjEom-dFJfUNCnRtmtGo_h_Sc-7z_IQrHY2bLnRT40wOEMqqT8n-GrDEhsDW8cz03Df5iFSkFx6zbKg",
									"type": "string"
								}
							]
						},
						"method": "POST",
						"header": [
							{
								"key": "Accept",
								"value": "application/json",
								"type": "text"
							},
							{
								"key": "Content-Type",
								"value": "application/json",
								"type": "text"
							}
						],
						"body": {
							"mode": "raw",
							"raw": "{\r\n    \"title\": \"X\",\r\n    \"cover\": \"https://m.media-amazon.com/images/I/61+2JqyWq-L._SL1500_.jpg\",\r\n    \"authorId\": 4,\r\n    \"price\": 12.34,\r\n    \"publisherId\": 2\r\n}"
						},
						"url": {
							"raw": "http://localhost:8002/books",
							"protocol": "http",
							"host": [
								"localhost"
							],
							"port": "8002",
							"path": [
								"books"
							]
						}
					},
					"response": []
				},
				{
					"name": "hateoas",
					"request": {
						"method": "GET",
						"header": [
							{
								"key": "Accept",
								"value": "application/json",
								"type": "text"
							}
						],
						"url": {
							"raw": "http://localhost:8002/hateoas/books",
							"protocol": "http",
							"host": [
								"localhost"
							],
							"port": "8002",
							"path": [
								"hateoas",
								"books"
							]
						}
					},
					"response": []
				},
				{
					"name": "hateoas books options",
					"request": {
						"method": "OPTIONS",
						"header": [
							{
								"key": "Accept",
								"value": "application/json",
								"type": "text"
							}
						],
						"url": {
							"raw": "http://localhost:8002/hateoas/books",
							"protocol": "http",
							"host": [
								"localhost"
							],
							"port": "8002",
							"path": [
								"hateoas",
								"books"
							]
						}
					},
					"response": []
				},
				{
					"name": "hateoas books get",
					"request": {
						"method": "GET",
						"header": [
							{
								"key": "Accept",
								"value": "application/json",
								"type": "text"
							}
						],
						"url": {
							"raw": "http://localhost:8002/hateoas/books",
							"protocol": "http",
							"host": [
								"localhost"
							],
							"port": "8002",
							"path": [
								"hateoas",
								"books"
							]
						}
					},
					"response": []
				}
			]
		},
		{
			"name": "app-rating",
			"item": [
				{
					"name": "get ratings",
					"request": {
						"method": "GET",
						"header": [
							{
								"key": "Accept",
								"value": "application/json",
								"type": "text"
							}
						],
						"url": {
							"raw": "http://localhost:8004/ratings?bookId=3",
							"protocol": "http",
							"host": [
								"localhost"
							],
							"port": "8004",
							"path": [
								"ratings"
							],
							"query": [
								{
									"key": "bookId",
									"value": "3"
								}
							]
						}
					},
					"response": []
				},
				{
					"name": "add rating",
					"request": {
						"auth": {
							"type": "basic",
							"basic": [
								{
									"key": "password",
									"value": "user2",
									"type": "string"
								},
								{
									"key": "username",
									"value": "user2",
									"type": "string"
								}
							]
						},
						"method": "POST",
						"header": [
							{
								"key": "Accept",
								"value": "application/json",
								"type": "text"
							},
							{
								"key": "Content-Type",
								"value": "application/json",
								"type": "text"
							},
							{
								"key": "Authorization",
								"value": "",
								"type": "text"
							}
						],
						"body": {
							"mode": "raw",
							"raw": "{    \r\n    \"bookId\": 3,\r\n    \"rate\": 5,\r\n    \"review\": \"Fascinating lecture explaining everything from scratch!\"\r\n}"
						},
						"url": {
							"raw": "http://localhost:8004/ratings",
							"protocol": "http",
							"host": [
								"localhost"
							],
							"port": "8004",
							"path": [
								"ratings"
							]
						}
					},
					"response": []
				},
				{
					"name": "correct rating",
					"request": {
						"method": "PUT",
						"header": [
							{
								"key": "Accept",
								"value": "application/json",
								"type": "text"
							},
							{
								"key": "Content-Type",
								"value": "application/json",
								"type": "text"
							}
						],
						"body": {
							"mode": "raw",
							"raw": "{    \r\n    \"rate\": 3,\r\n    \"review\": \"The ending was disapointed!\"\r\n}"
						},
						"url": {
							"raw": "http://localhost:8003/ratings/10003",
							"protocol": "http",
							"host": [
								"localhost"
							],
							"port": "8003",
							"path": [
								"ratings",
								"10003"
							]
						}
					},
					"response": []
				}
			]
		}
	]
}